# Restarting with LD_PRELOAD='libtcmalloc.so'
# --> Including file '/afs/cern.ch/work/m/marcocle/workspace/Gaudi/GaudiExamples/tests/qmtest/.eclipse/gaudiexamples.google_auditors.heapchecker.launch.py'
# <-- End of file '/afs/cern.ch/work/m/marcocle/workspace/Gaudi/GaudiExamples/tests/qmtest/.eclipse/gaudiexamples.google_auditors.heapchecker.launch.py'
# applying configuration of GaudiExamplesCommonConf
# /***** User GaudiExamplesCommonConf/GaudiExamplesCommonConf ****************************************
# |-OutputLevel = 3
# \----- (End of User GaudiExamplesCommonConf/GaudiExamplesCommonConf) -------------------------------
# Dumping all configurables and properties (different from default)
{'ApplicationMgr': {'AuditAlgorithms': True,
                    'EvtMax': 10,
                    'EvtSel': 'NONE',
                    'StatusCodeCheck': True,
                    'TopAlg': ['HelloWorld/HelloWorld']},
 'AuditorSvc': {'Auditors': ['Google::HeapChecker/Google::HeapChecker',
                             'ChronoAuditor/ChronoAuditor']},
 'Google::HeapChecker': {'OutputLevel': 3},
 'MessageSvc': {'OutputLevel': 3}}
ApplicationMgr    SUCCESS
====================================================================================================================================
                                                   Welcome to ApplicationMgr (GaudiCoreSvc v3r1)
                                          running on pclhcb117 on Wed Nov 12 10:29:57 2014
====================================================================================================================================
ApplicationMgr       INFO Application Manager Configured successfully
StatusCodeSvc        INFO initialize
Google::HeapChe...   INFO Initialised
ChronoStatSvc        INFO  Number of skipped events for MemStat-1
Google::HeapChe...   INFO Starting Auditor for HelloWorld:Initialize
HelloWorld           INFO initializing....
EventLoopMgr      WARNING Unable to locate service "EventSelector"
EventLoopMgr      WARNING No events will be processed from external input.
HistogramPersis...WARNING Histograms saving not required.
ApplicationMgr       INFO Application Manager Initialized successfully
ApplicationMgr       INFO Application Manager Started successfully
Google::HeapChe...   INFO Starting Auditor for HelloWorld:BeginRun
HelloWorld           INFO beginning new run....
Google::HeapChe...   INFO Starting Auditor for HelloWorld:Execute
HelloWorld           INFO executing....
Google::HeapChe...   INFO Starting Auditor for HelloWorld:Execute
HelloWorld           INFO executing....
Google::HeapChe...   INFO Starting Auditor for HelloWorld:Execute
HelloWorld           INFO executing....
Google::HeapChe...   INFO Starting Auditor for HelloWorld:Execute
HelloWorld           INFO executing....
Google::HeapChe...   INFO Starting Auditor for HelloWorld:Execute
HelloWorld           INFO executing....
Google::HeapChe...   INFO Starting Auditor for HelloWorld:Execute
HelloWorld           INFO executing....
Google::HeapChe...   INFO Starting Auditor for HelloWorld:Execute
HelloWorld           INFO executing....
Google::HeapChe...   INFO Starting Auditor for HelloWorld:Execute
HelloWorld           INFO executing....
Google::HeapChe...   INFO Starting Auditor for HelloWorld:Execute
HelloWorld           INFO executing....
Google::HeapChe...   INFO Starting Auditor for HelloWorld:Execute
HelloWorld           INFO executing....
Google::HeapChe...   INFO Starting Auditor for HelloWorld:EndRun
HelloWorld           INFO ending new run....
ApplicationMgr       INFO Application Manager Stopped successfully
Google::HeapChe...   INFO Starting Auditor for HelloWorld:Finalize
HelloWorld           INFO finalizing....
EventLoopMgr         INFO Histograms converted successfully according to request.
*****Chrono*****     INFO ****************************************************************************************************
*****Chrono*****     INFO  The Final CPU consumption ( Chrono ) Table (ordered)
*****Chrono*****     INFO ****************************************************************************************************
HelloWorld:Start     INFO Time User   : Tot=    0 [us]                                             #=  1
HelloWorld:Stop      INFO Time User   : Tot=    0 [us]                                             #=  1
HelloWorld:Fina...   INFO Time User   : Tot=    9 [ms]                                             #=  1
HelloWorld:EndRun    INFO Time User   : Tot=    9 [ms]                                             #=  1
HelloWorld:Init...   INFO Time User   : Tot=   10 [ms]                                             #=  1
HelloWorld:Begi...   INFO Time User   : Tot=   11 [ms]                                             #=  1
HelloWorld:Execute   INFO Time User   : Tot=  105 [ms] Ave/Min/Max= 10.5(+- 1.12)/    8/   12 [ms] #= 10
ChronoStatSvc        INFO Time User   : Tot=  325 [ms]                                             #=  1
*****Chrono*****     INFO ****************************************************************************************************
ChronoStatSvc.f...   INFO  Service finalized successfully
ApplicationMgr       INFO Application Manager Finalized successfully
ApplicationMgr       INFO Application Manager Terminated successfully
